…
### Interacting with models

A set of functions let you seamlessly add predictions and residuals as additional columns to an existing data frame:

``` r
df <- tibble::data_frame(
  x = sort(runif(100)),
  y = 5 * x + 0.5 * x ^ 2 + 3 + rnorm(length(x))
)

mod <- lm(y ~ x, data = df)
df %>% add_predictions(mod)
```

    ## # A tibble: 100 × 3
    ##              x         y     pred
    ##          <dbl>     <dbl>    <dbl>
    ## 1  0.001960865 3.3765343 2.903298
    ## 2  0.009710429 0.4879972 2.948092
    ## 3  0.026235324 3.4264812 3.043611
    ## 4  0.027837300 3.5372679 3.052870
    ## 5  0.030021915 1.8151134 3.065498
    ## 6  0.031186287 1.9037856 3.072229
    ## 7  0.038435193 3.0714626 3.114129
    ## 8  0.044384863 1.1072440 3.148520
    ## 9  0.052380702 1.7221297 3.194738
    ## 10 0.074117513 2.9017861 3.320382
    ## # ... with 90 more rows

``` r
df %>% add_residuals(mod)
```

    ## # A tibble: 100 × 3
    ##              x         y       resid
    ##          <dbl>     <dbl>       <dbl>
    ## 1  0.001960865 3.3765343  0.47323640
    ## 2  0.009710429 0.4879972 -2.46009522
    ## 3  0.026235324 3.4264812  0.38287059
    ## 4  0.027837300 3.5372679  0.48439742
    ## 5  0.030021915 1.8151134 -1.25038477
    ## 6  0.031186287 1.9037856 -1.16844288
    ## 7  0.038435193 3.0714626 -0.04266657
    ## 8  0.044384863 1.1072440 -2.04127577
    ## 9  0.052380702 1.7221297 -1.47260820
    ## 10 0.074117513 2.9017861 -0.41859631
    ## # ... with 90 more rows

For visualization purposes it is often useful to use an evenly spaced grid of points from the data:

``` r
data_grid(df, x, y)
```

    ## # A tibble: 10,000 × 2
    ##              x         y
    ##          <dbl>     <dbl>
    ## 1  0.001960865 0.4879972
    ## 2  0.001960865 1.1072440
    ## 3  0.001960865 1.7221297
    ## 4  0.001960865 1.8151134
    ## 5  0.001960865 1.9037856
    ## 6  0.001960865 2.9017861
    ## 7  0.001960865 2.9952107
    ## 8  0.001960865 2.9970347
    ## 9  0.001960865 3.0258177
    ## 10 0.001960865 3.0714626
    ## # ... with 9,990 more rows

``` r
data_grid(df, x, y) %>% add_predictions(mod)
```

    ## # A tibble: 10,000 × 3
    ##              x         y     pred
    ##          <dbl>     <dbl>    <dbl>
    ## 1  0.001960865 0.4879972 2.903298
    ## 2  0.001960865 1.1072440 2.903298
    ## 3  0.001960865 1.7221297 2.903298
    ## 4  0.001960865 1.8151134 2.903298
    ## 5  0.001960865 1.9037856 2.903298
    ## 6  0.001960865 2.9017861 2.903298
    ## 7  0.001960865 2.9952107 2.903298
    ## 8  0.001960865 2.9970347 2.903298
    ## 9  0.001960865 3.0258177 2.903298
    ## 10 0.001960865 3.0714626 2.903298
    ## # ... with 9,990 more rows
