Modelling Functions that Work with the Pipe • modelr
…
Interacting with models

A set of functions let you seamlessly add predictions and residuals as additional columns to an existing data frame:

set.seed(1014)
df <- tibble::tibble(
  x = sort(runif(100)),
  y = 5 * x + 0.5 * x ^ 2 + 3 + rnorm(length(x))
)

mod <- lm(y ~ x, data = df)
df %>% add_predictions(mod)
#> # A tibble: 100 × 3
#>          x     y  pred
#>      <dbl> <dbl> <dbl>
#>  1 0.00740 3.90   3.08
#>  2 0.0201  2.86   3.15
#>  3 0.0280  2.93   3.19
#>  4 0.0281  3.16   3.19
#>  5 0.0312  3.19   3.21
#>  6 0.0342  3.72   3.23
#>  7 0.0514  0.984  3.32
#>  8 0.0586  5.98   3.36
#>  9 0.0637  2.96   3.39
#> 10 0.0652  3.54   3.40
#> # … with 90 more rows
#> # ℹ Use `print(n = ...)` to see more rows
df %>% add_residuals(mod)
#> # A tibble: 100 × 3
#>          x     y   resid
#>      <dbl> <dbl>   <dbl>
#>  1 0.00740 3.90   0.822 
#>  2 0.0201  2.86  -0.290 
#>  3 0.0280  2.93  -0.256 
#>  4 0.0281  3.16  -0.0312
#>  5 0.0312  3.19  -0.0223
#>  6 0.0342  3.72   0.496 
#>  7 0.0514  0.984 -2.34  
#>  8 0.0586  5.98   2.62  
#>  9 0.0637  2.96  -0.428 
#> 10 0.0652  3.54   0.146 
#> # … with 90 more rows
#> # ℹ Use `print(n = ...)` to see more rows

For visualization purposes it is often useful to use an evenly spaced grid of points from the data:

data_grid(mtcars, wt = seq_range(wt, 10), cyl, vs)
#> # A tibble: 60 × 3
#>       wt   cyl    vs
#>    <dbl> <dbl> <dbl>
#>  1  1.51     4     0
#>  2  1.51     4     1
#>  3  1.51     6     0
#>  4  1.51     6     1
#>  5  1.51     8     0
#>  6  1.51     8     1
#>  7  1.95     4     0
#>  8  1.95     4     1
#>  9  1.95     6     0
#> 10  1.95     6     1
#> # … with 50 more rows
#> # ℹ Use `print(n = ...)` to see more rows

# For continuous variables, seq_range is useful
mtcars_mod <- lm(mpg ~ wt + cyl + vs, data = mtcars)
data_grid(mtcars, wt = seq_range(wt, 10), cyl, vs) %>% add_predictions(mtcars_mod)
#> # A tibble: 60 × 4
#>       wt   cyl    vs  pred
#>    <dbl> <dbl> <dbl> <dbl>
#>  1  1.51     4     0  28.4
#>  2  1.51     4     1  28.9
#>  3  1.51     6     0  25.6
#>  4  1.51     6     1  26.2
#>  5  1.51     8     0  22.9
#>  6  1.51     8     1  23.4
#>  7  1.95     4     0  27.0
#>  8  1.95     4     1  27.5
#>  9  1.95     6     0  24.2
#> 10  1.95     6     1  24.8
#> # … with 50 more rows
#> # ℹ Use `print(n = ...)` to see more rows
…
