Add residuals to a data frame — add_residuals • modelr
…
m1 <- lm(y ~ x, data = df)
df %>% add_residuals(m1)
#> # A tibble: 100 × 3
#>           x     y  resid
#>       <dbl> <dbl>  <dbl>
#>  1 0.000223  2.67 -0.350
#>  2 0.0264    4.40  1.24 
#>  3 0.0400    3.47  0.233
#>  4 0.0463    2.91 -0.360
#>  5 0.0674    4.28  0.900
#>  6 0.0705    3.05 -0.350
#>  7 0.0793    3.66  0.212
#>  8 0.0874    2.30 -1.19 
#>  9 0.0933    3.71  0.191
#> 10 0.0953    4.31  0.774
#> # … with 90 more rows

m2 <- lm(y ~ poly(x, 2), data = df)
df %>% spread_residuals(m1, m2)
#> # A tibble: 100 × 4
#>           x     y     m1     m2
#>       <dbl> <dbl>  <dbl>  <dbl>
#>  1 0.000223  2.67 -0.350 -0.435
#>  2 0.0264    4.40  1.24   1.17 
#>  3 0.0400    3.47  0.233  0.168
#>  4 0.0463    2.91 -0.360 -0.421
#>  5 0.0674    4.28  0.900  0.848
#>  6 0.0705    3.05 -0.350 -0.400
#>  7 0.0793    3.66  0.212  0.166
#>  8 0.0874    2.30 -1.19  -1.24 
#>  9 0.0933    3.71  0.191  0.151
#> 10 0.0953    4.31  0.774  0.735
#> # … with 90 more rows
df %>% gather_residuals(m1, m2)
#> # A tibble: 200 × 4
#>    model        x     y  resid
#>    <chr>    <dbl> <dbl>  <dbl>
#>  1 m1    0.000223  2.67 -0.350
#>  2 m1    0.0264    4.40  1.24 
#>  3 m1    0.0400    3.47  0.233
#>  4 m1    0.0463    2.91 -0.360
#>  5 m1    0.0674    4.28  0.900
#>  6 m1    0.0705    3.05 -0.350
#>  7 m1    0.0793    3.66  0.212
#>  8 m1    0.0874    2.30 -1.19 
#>  9 m1    0.0933    3.71  0.191
#> 10 m1    0.0953    4.31  0.774
#> # … with 190 more rows
…
