Generate a data grid. — data_grid • modelr
…
    Examples

data_grid(mtcars, vs, am)
#> # A tibble: 4 × 2
#>      vs    am
#>   <dbl> <dbl>
#> 1     0     0
#> 2     0     1
#> 3     1     0
#> 4     1     1

# For continuous variables, seq_range is useful
data_grid(mtcars, mpg = mpg)
#> # A tibble: 25 × 1
#>      mpg
#>    <dbl>
#>  1  10.4
#>  2  13.3
#>  3  14.3
#>  4  14.7
#>  5  15  
#>  6  15.2
#>  7  15.5
#>  8  15.8
#>  9  16.4
#> 10  17.3
#> # … with 15 more rows
…
