Modelling Functions that Work with the Pipe • modelr
…
Interacting with models

A set of functions let you seamlessly add predictions and residuals as additional columns to an existing data frame:

df <- tibble::data_frame(
  x = sort(runif(100)),
  y = 5 * x + 0.5 * x ^ 2 + 3 + rnorm(length(x))
)

mod <- lm(y ~ x, data = df)
df %>% add_predictions(mod)
#> # A tibble: 100 x 3
#>          x     y  pred
#>      <dbl> <dbl> <dbl>
#>  1 0.00776  3.43  3.07
#>  2 0.0101   3.92  3.08
#>  3 0.0204   3.57  3.14
#>  4 0.0541   1.79  3.32
#>  5 0.0756   2.54  3.44
#>  6 0.0993   2.86  3.57
#>  7 0.122    3.57  3.69
#>  8 0.138    3.87  3.78
#>  9 0.152    3.67  3.86
#> 10 0.153    3.86  3.86
#> # ... with 90 more rows
df %>% add_residuals(mod)
#> # A tibble: 100 x 3
#>          x     y    resid
#>      <dbl> <dbl>    <dbl>
#>  1 0.00776  3.43  0.369  
#>  2 0.0101   3.92  0.846  
#>  3 0.0204   3.57  0.440  
#>  4 0.0541   1.79 -1.53   
#>  5 0.0756   2.54 -0.892  
#>  6 0.0993   2.86 -0.712  
#>  7 0.122    3.57 -0.121  
#>  8 0.138    3.87  0.0888 
#>  9 0.152    3.67 -0.183  
#> 10 0.153    3.86  0.00228
#> # ... with 90 more rows

For visualization purposes it is often useful to use an evenly spaced grid of points from the data:

data_grid(mtcars, wt = seq_range(wt, 10), cyl, vs)
#> # A tibble: 60 x 3
#>       wt   cyl    vs
#>    <dbl> <dbl> <dbl>
#>  1  1.51     4     0
#>  2  1.51     4     1
#>  3  1.51     6     0
#>  4  1.51     6     1
#>  5  1.51     8     0
#>  6  1.51     8     1
#>  7  1.95     4     0
#>  8  1.95     4     1
#>  9  1.95     6     0
#> 10  1.95     6     1
#> # ... with 50 more rows

# For continuous variables, seq_range is useful
mtcars_mod <- lm(mpg ~ wt + cyl + vs, data = mtcars)
data_grid(mtcars, wt = seq_range(wt, 10), cyl, vs) %>% add_predictions(mtcars_mod)
#> # A tibble: 60 x 4
#>       wt   cyl    vs  pred
#>    <dbl> <dbl> <dbl> <dbl>
#>  1  1.51     4     0  28.4
#>  2  1.51     4     1  28.9
#>  3  1.51     6     0  25.6
#>  4  1.51     6     1  26.2
#>  5  1.51     8     0  22.9
#>  6  1.51     8     1  23.4
#>  7  1.95     4     0  27.0
#>  8  1.95     4     1  27.5
#>  9  1.95     6     0  24.2
#> 10  1.95     6     1  24.8
#> # ... with 50 more rows
…
